{
  "project_info": {
    "project_number": "220714174877",
    "firebase_url": "https://nur-ilmi.firebaseio.com",
    "project_id": "nur-ilmi",
    "storage_bucket": "nur-ilmi.appspot.com"
  },
  "client": [
    {
      "client_info": {
        "mobilesdk_app_id": "1:220714174877:android:bfdd22c3940f2a2cc2c774",
        "android_client_info": {
          "package_name": "com.example.cahayailmupengetahuan"
        }
      },
      "oauth_client": [
        {
          "client_id": "220714174877-s7jj3m70s34jkq4r4dfs5noik3o9bb4p.apps.googleusercontent.com",
          "client_type": 3
        }
      ],
      "api_key": [
        {
          "current_key": "AIzaSyDNRQLBMCNwr5L-dnkBZP-bVPiXLMMG-fU"
        }
      ],
      "services": {
        "appinvite_service": {
          "other_platform_oauth_client": [
            {
              "client_id": "220714174877-s7jj3m70s34jkq4r4dfs5noik3o9bb4p.apps.googleusercontent.com",
              "client_type": 3
            }
          ]
        }
      }
    },
    {
      "client_info": {
        "mobilesdk_app_id": "1:220714174877:android:c1b61ab0e3cbb591c2c774",
        "android_client_info": {
          "package_name": "com.example.nurilmi"
        }
      },
      "oauth_client": [
        {
          "client_id": "220714174877-r1lvdchfucjokafsf1cvo1pl7107m5p0.apps.googleusercontent.com",
          "client_type": 1,
          "android_info": {
            "package_name": "com.example.nurilmi",
            "certificate_hash": "6bb79706ddb47277910072ccf019e59497ca7a6c"
          }
        },
        {
          "client_id": "220714174877-ivlsj5c2qgjdd9c0quaep3k2c676f5u1.apps.googleusercontent.com",
          "client_type": 1,
          "android_info": {
            "package_name": "com.example.nurilmi",
            "certificate_hash": "1cd1cd534a3902988e968b7f5f0ac35878da3e32"
          }
        },
        {
          "client_id": "220714174877-s7jj3m70s34jkq4r4dfs5noik3o9bb4p.apps.googleusercontent.com",
          "client_type": 3
        }
      ],
      "api_key": [
        {
          "current_key": "AIzaSyDNRQLBMCNwr5L-dnkBZP-bVPiXLMMG-fU"
        }
      ],
      "services": {
        "appinvite_service": {
          "other_platform_oauth_client": [
            {
              "client_id": "220714174877-s7jj3m70s34jkq4r4dfs5noik3o9bb4p.apps.googleusercontent.com",
              "client_type": 3
            }
          ]
        }
      }
    },
    {
      "client_info": {
        "mobilesdk_app_id": "1:220714174877:android:5c36123b68b67a3cc2c774",
        "android_client_info": {
          "package_name": "com.example.nurilmiadmin"
        }
      },
      "oauth_client": [
        {
          "client_id": "220714174877-kddengns9l9atngfub48o9cede14d6u1.apps.googleusercontent.com",
          "client_type": 1,
          "android_info": {
            "package_name": "com.example.nurilmiadmin",
            "certificate_hash": "9663f080a33b20a46c5c00e282c9bd8d114d1dd3"
          }
        },
        {
          "client_id": "220714174877-64q3m3acujibbb21oos1jaeh6bclikuj.apps.googleusercontent.com",
          "client_type": 1,
          "android_info": {
            "package_name": "com.example.nurilmiadmin",
            "certificate_hash": "fb7b349158383677e74a82f4326ff4012816734d"
          }
        },
        {
          "client_id": "220714174877-s7jj3m70s34jkq4r4dfs5noik3o9bb4p.apps.googleusercontent.com",
          "client_type": 3
        }
      ],
      "api_key": [
        {
          "current_key": "AIzaSyDNRQLBMCNwr5L-dnkBZP-bVPiXLMMG-fU"
        }
      ],
      "services": {
        "appinvite_service": {
          "other_platform_oauth_client": [
            {
              "client_id": "220714174877-s7jj3m70s34jkq4r4dfs5noik3o9bb4p.apps.googleusercontent.com",
              "client_type": 3
            }
          ]
        }
      }
    },
    {
      "client_info": {
        "mobilesdk_app_id": "1:220714174877:android:eed684c8876936a0c2c774",
        "android_client_info": {
          "package_name": "com.example.nurilmibila"
        }
      },
      "oauth_client": [
        {
          "client_id": "220714174877-s7jj3m70s34jkq4r4dfs5noik3o9bb4p.apps.googleusercontent.com",
          "client_type": 3
        }
      ],
      "api_key": [
        {
          "current_key": "AIzaSyDNRQLBMCNwr5L-dnkBZP-bVPiXLMMG-fU"
        }
      ],
      "services": {
        "appinvite_service": {
          "other_platform_oauth_client": [
            {
              "client_id": "220714174877-s7jj3m70s34jkq4r4dfs5noik3o9bb4p.apps.googleusercontent.com",
              "client_type": 3
            }
          ]
        }
      }
    },
    {
      "client_info": {
        "mobilesdk_app_id": "1:220714174877:android:77183d3353a5987cc2c774",
        "android_client_info": {
          "package_name": "com.example.nurilmitest"
        }
      },
      "oauth_client": [
        {
          "client_id": "220714174877-s7jj3m70s34jkq4r4dfs5noik3o9bb4p.apps.googleusercontent.com",
          "client_type": 3
        }
      ],
      "api_key": [
        {
          "current_key": "AIzaSyDNRQLBMCNwr5L-dnkBZP-bVPiXLMMG-fU"
        }
      ],
      "services": {
        "appinvite_service": {
          "other_platform_oauth_client": [
            {
              "client_id": "220714174877-s7jj3m70s34jkq4r4dfs5noik3o9bb4p.apps.googleusercontent.com",
              "client_type": 3
            }
          ]
        }
      }
    }
  ],
  "configuration_version": "1"
}